ENCODS 2023 | R Workshop – R-Mind
…
# Just like individual plots, you can also save the whole figure into a variable.
figure03 <- ((p04 + p05) | (p06 / p07)) + plot_annotation("Figure 3", tag_levels = "A")

Exercise5

Figure 6 | Interactions, Points and Bar plots

# Look at the data
fig06

# A tibble: 123 × 4
   treatment sensitivity nr_resp signif
   <fct>     <fct>         <dbl> <chr> 
 1 Caf       LS            1.09  ""    
 2 Caf       LS            0.988 ""    
 3 Caf       LS            1.10  ""    
 4 Caf       LS            1.09  ""    
 5 Caf       LS            1.01  ""    
 6 Caf       LS            0.986 ""    
 7 Caf       LS            1.04  ""    
 8 Caf       LS            1.20  ""    
 9 Caf       HS            0.898 ""    
10 Caf       HS            0.837 ""    
# ℹ 113 more rows
…
