R-Mind - Day1
…
# Doing a similar analysis, using tidyverse programming style
mice_data %>%
  group_by(age_months, diet, gender) %>%
  count()

# A tibble: 30 × 4
# Groups:   age_months, diet, gender [30]
   age_months diet  gender     n
        <int> <fct> <fct>  <int>
 1         10 lean  F          1
 2         10 lean  M          1
 3         12 lean  M          2
 4         14 fat   F          2
 5         14 lean  F          1
 6         15 fat   F          1
 7         15 lean  F          2
 8         15 lean  M          2
 9         16 lean  F          1
10         17 fat   M          3
# ℹ 20 more rows
…
